[{
    "question": "Which company first implemented the JavaScript language?",
    "choices": ["Microsoft", "Sun Microsystems", "Netscape Communications"],
    "correctAnswer": 2
}, {
    "question": "Which of the following browsers was the first to support JavaScript?",
    "choices": ["Microsoft Internet Explorer", "Netscape Navigator", "Opera"],
    "correctAnswer": 1
}, {
    "question": "The JavaScript international standard is called",
    "choices": ["ECMA-262 Standard", "JavaScript 1.3 Standard", "IEEE-262 Standard"],
    "correctAnswer": 0
}]
